<svg width="448" height="316" viewBox="0 0 448 316" fill="none" xmlns="http://www.w3.org/2000/svg">
<path fill-rule="evenodd" clip-rule="evenodd" d="M0 158V316H224H448V158V0H224H0V158ZM445 158V313H224H3V158V3H224H445V158ZM19 159V301H224H429V159V17H224H19V159ZM321.686 105.714C326.315 108.747 328 114.579 328 127.566C327.999 150.555 323.279 171.847 313.006 195.195C309.153 203.953 306 211.274 306 211.465C306 211.655 310.5 211.563 316 211.26C325.518 210.736 326 210.806 326 212.71C326 214.45 325.122 214.794 319.25 215.348C308.164 216.395 301.272 216.151 300.712 214.692C300.436 213.973 303.316 206.211 307.112 197.442C320.519 166.477 324.451 149.84 323.85 126.636C323.543 114.821 323.239 112.793 321.401 110.322C320.228 108.744 318.14 107.361 316.666 107.185C314.506 106.927 313.767 107.469 312.576 110.185C311.776 112.008 310.861 114.737 310.542 116.25C309.606 120.688 307 119.732 307 114.95C307 110.432 309.094 105.634 311.75 104.067C313.796 102.861 318.529 103.645 321.686 105.714ZM139.924 108.858C142.554 113.772 150.073 206.321 148.365 212.75C147.659 215.404 143.552 215.881 142.607 213.418C142.273 212.548 142 207.614 142 202.453C142 191.524 142.301 191.868 131.128 190.006C125.005 188.986 123.611 189.009 122.904 190.139C122.436 190.888 120.871 196.563 119.428 202.752C117.985 208.94 116.355 214.281 115.806 214.62C115.257 214.959 114.212 214.621 113.483 213.868C112.38 212.73 112.824 209.564 116.131 195C118.316 185.375 122.324 165.35 125.038 150.5C130.018 123.243 132.944 110.978 135.079 108.405C136.695 106.458 138.742 106.65 139.924 108.858ZM135.24 121.087C134.607 124.064 132.922 133.7 131.496 142.5C130.071 151.3 127.528 164.265 125.847 171.311C124.165 178.357 123.026 184.359 123.315 184.648C124.375 185.708 131.642 186.953 136.907 186.976L142.313 187L141.682 171.704C140.938 153.674 138.217 121.532 137.143 118.087C136.499 116.021 136.226 116.453 135.24 121.087ZM199.452 126.017C199.402 134.852 198.367 165.16 197.438 185C196.416 206.823 192.226 217 184.264 217C179.616 217 174.44 213.7 173.111 209.89C172.525 208.209 171.559 202.033 170.965 196.167C169.647 183.165 168.108 123.039 169.044 121.128C169.555 120.084 170.108 120.317 171.358 122.101C172.76 124.103 173.009 127.805 173.063 147.473C173.098 160.138 173.69 178.495 174.38 188.266C175.746 207.62 176.675 210.421 182.405 212.462C186.236 213.826 188.186 212.26 190.239 206.172C192.881 198.341 193.799 186.584 194.549 151C194.926 133.125 195.448 118.138 195.71 117.695C195.972 117.252 196.932 117.034 197.843 117.211C199.235 117.482 199.492 118.891 199.452 126.017ZM277.002 123.872C277.004 128.761 280.398 161.064 284.031 190.78C285.664 204.133 287 215.271 287 215.53C287 215.788 285.933 216 284.628 216C282.022 216 281.741 215.051 280.4 201.722C280.025 197.994 279.444 194.786 279.109 194.593C278.774 194.399 274.675 193.932 270 193.555L261.5 192.868L259.864 203.034C258.092 214.046 256.192 217.646 253.566 214.964C252.326 213.699 252.322 212.774 253.535 208.152C254.306 205.21 256.107 196.21 257.537 188.152C258.967 180.093 261.503 166.3 263.173 157.5C265.808 143.621 268.871 123.968 268.968 120.316C269.008 118.844 274.055 118.12 275.75 119.343C276.438 119.839 277.001 121.877 277.002 123.872ZM226.865 166.89L226.555 211.5L234.527 212C241.667 212.448 242.5 212.709 242.5 214.5C242.5 216.357 241.801 216.507 232.744 216.596C226.687 216.655 222.707 216.276 222.244 215.596C221.264 214.153 222.268 123.857 223.282 122.294C223.712 121.63 224.764 121.356 225.619 121.684C227 122.214 227.14 127.271 226.865 166.89ZM272.744 133.5C271.286 138.047 263 182.09 263 185.293C263 189.361 264.317 189.965 273.231 189.986L278.962 190L278.474 185.75C278.206 183.412 277.075 170.925 275.961 158C273.617 130.793 273.615 130.784 272.744 133.5ZM341 233V237H224H107V233V229H224H341V233Z" fill="#197D00"/>
</svg>
